mean rec. rank;0.3558129225844406;mean precision;0.0017522120959931491;mean recall;0.9083333333333332;mean f1-score;0.003494792209557454;mean average precision;0.21687917044747324;% top 1;0.2;% top 5;0.5;% top 10;0.65
system;query ID;query key;rank;rec. rank;true positives;precision;false negatives;recall;f1 score;avg precision
;1;null;0.0;0.0;0.0;0.0;0.0;0.0;0.0;0.0
;2;null;270.0;0.003703703703703704;2.0;0.002306805074971165;1.0;0.6666666666666666;0.004597701149425288;0.0028371320037986706
;3;null;3.0;0.3333333333333333;3.0;0.0026666666666666666;0.0;1.0;0.005319148936170213;0.14690220174091143
;4;null;107.0;0.009345794392523364;1.0;9.99000999000999E-4;0.0;1.0;0.001996007984031936;0.009345794392523364
;5;null;2.0;0.5;3.0;5.713197486193106E-4;0.0;1.0;0.0011419870574800152;0.18417553191489364
;6;null;6.0;0.16666666666666666;1.0;0.0041841004184100415;0.0;1.0;0.008333333333333333;0.16666666666666666
;7;null;238.0;0.004201680672268907;2.0;0.001358695652173913;0.0;1.0;0.00271370420624152;0.006216066673583013
;8;null;3.0;0.3333333333333333;3.0;0.003740648379052369;0.0;1.0;0.007453416149068324;0.24444444444444444
;9;null;13.0;0.07692307692307693;2.0;0.002751031636863824;1.0;0.6666666666666666;0.005479452054794521;0.02672680197110165
;10;null;2.0;0.5;3.0;5.706676811869887E-4;0.0;1.0;0.0011406844106463877;0.44771241830065356
;11;null;6.0;0.16666666666666666;6.0;0.0011409013120365088;0.0;1.0;0.002279202279202279;0.10129959201401278
;12;null;161.0;0.006211180124223602;4.0;0.002680965147453083;0.0;1.0;0.0053475935828877;0.006221483522888116
;13;null;1.0;1.0;2.0;0.001639344262295082;0.0;1.0;0.0032733224222585926;1.0
;14;null;2.0;0.5;3.0;5.703422053231939E-4;0.0;1.0;0.001140034201026031;0.17188995215311
;15;null;14.0;0.07142857142857142;8.0;0.001520912547528517;0.0;1.0;0.003037205770690964;0.017121642154560465
;16;null;1.0;1.0;7.0;0.0013305455236647026;0.0;1.0;0.0026575550493545936;0.17915540594339704
;17;null;3.0;0.3333333333333333;7.0;0.0013305455236647026;0.0;1.0;0.0026575550493545936;0.1947344322344322
;18;null;1.0;1.0;3.0;0.002210759027266028;0.0;1.0;0.004411764705882353;0.3373778268515111
;19;null;1.0;1.0;1.0;1.9015021867275147E-4;0.0;1.0;3.8022813688212925E-4;1.0
;20;null;9.0;0.1111111111111111;5.0;0.0032808398950131233;1.0;0.8333333333333334;0.006535947712418301;0.0947560159669774
